c183 2a9e fdff ffff 6003 0000 8101 0000
0000 0000 0000 0000 2d06 0000 0500 0000
4e6f 6e65 0000 0000 0023 0000 00bc 0000
0001 0000 0035 0300 0002 0000 00fd 0200
0079 0300 0000 0000 007d 0300 00b6 0400
0009 d255 e0d9 09af 43a8 5ebd f73f 1e40
fa01 0000 0001 0000 0023 0000 0004 0004
0000 00d8 6a22 0019 0000 002b 2b64 6570
6f74 2b55 4534 2d52 656c 6561 7365 732b
342e 3400 0000 0000 0000 0000 dbe9 be73
0000 0000 0000 0000 d804 0000 8308 0000
0000 0000 0000 0000 0000 0000 2100 0000
2f47 616d 652f 436f 6c6f 725f 4c55 545f
436f 6c6c 6563 7469 6f6e 2f52 6574 726f
0014 0000 002f 5363 7269 7074 2f43 6f72
6555 4f62 6a65 6374 000f 0000 002f 5363
7269 7074 2f45 6e67 696e 6500 0d00 0000
426f 6f6c 5072 6f70 6572 7479 000f 0000
0062 504e 4743 6f6d 7072 6573 7365 6400
0d00 0000 4279 7465 5072 6f70 6572 7479
0006 0000 0043 6c61 7373 0015 0000 0045
5465 7874 7572 6553 6f75 7263 6546 6f72
6d61 7400 0700 0000 466f 726d 6174 0005
0000 0047 7569 6400 0300 0000 4964 000c
0000 0049 6e74 5072 6f70 6572 7479 000d
0000 004c 6967 6874 696e 6747 7569 6400
0900 0000 4c4f 4447 726f 7570 000f 0000
004d 6970 4765 6e53 6574 7469 6e67 7300
0500 0000 4e6f 6e65 0008 0000 004e 756d
4d69 7073 000a 0000 004e 756d 536c 6963
6573 0008 0000 0050 6163 6b61 6765 0006
0000 0052 6574 726f 0006 0000 0053 697a
6558 0006 0000 0053 697a 6559 0007 0000
0053 6f75 7263 6500 0f00 0000 536f 7572
6365 4669 6c65 5061 7468 0014 0000 0053
6f75 7263 6546 696c 6554 696d 6573 7461
6d70 0005 0000 0053 5247 4200 0c00 0000
5374 7250 726f 7065 7274 7900 0f00 0000
5374 7275 6374 5072 6f70 6572 7479 000a
0000 0054 6578 7475 7265 3244 000d 0000
0054 6578 7475 7265 4772 6f75 7000 1e00
0000 5445 5854 5552 4547 524f 5550 5f43
6f6c 6f72 4c6f 6f6b 7570 5461 626c 6500
1600 0000 5465 7874 7572 654d 6970 4765
6e53 6574 7469 6e67 7300 0e00 0000 5465
7874 7572 6553 6f75 7263 6500 0f00 0000
544d 4753 5f4e 6f4d 6970 6d61 7073 000a
0000 0054 5346 5f42 4752 4138 0001 0000
0000 0000 0006 0000 0000 0000 00fe ffff
ff1c 0000 0000 0000 0001 0000 0000 0000
0012 0000 0000 0000 0000 0000 0002 0000
0000 0000 00ff ffff ff00 0000 0000 0000
0013 0000 0003 0000 0003 0000 0056 0200
002d 0600 0000 0000 0000 0000 0000 0000
0000 0000 0000 0000 0000 0000 0000 0000
0000 0000 0001 0000 0000 0000 0000 0100
0010 0000 002d 0100 0089 504e 470d 0a1a
0a00 0000 0d49 4844 5200 0001 0000 0000
1008 0600 0000 f9d3 a149 0000 00f4 4944
4154 78da edd7 516a c240 1845 e193 3026
24a0 85d2 d2a0 2f6e c1d7 ba10 97e3 02b2
e5d2 f4a1 2035 c498 18a9 9839 df63 f422
4ce6 bf33 2687 ddb1 e1cc 1ef8 0096 4009
6440 0052 ba54 d4bf 1f9f 7c02 d5e0 fc8a
baf5 645c 3ebf 219f fcf9 76d6 9b2f 80bc
f7f7 a7e6 f389 f932 f27c f1e0 f7b7 98b8
7fa7 e643 5ffe eb7a befb e918 81a7 91b4
865f 9ab5 01b3 99c6 b216 0ebe 74ef 0208
0ebf f4cc b780 40e1 c92f cdda a2af 00b6
0fb9 3bfc d3f0 37be 7c09 e0fb 5201 6c3c
f9a5 78ff 21ac e737 5d0e bfd4 a1e9 2a80
f779 4d98 c32f 8d29 8037 affd b64e 3c1b
5eed 0278 75b3 4bb1 9662 e0c5 d35f 8af7
0650 ba08 52ac 5297 40b2 0024 5900 9262
f203 e48c 1a04 da2d f5a5 0000 0000 4945
4e44 ae42 6082 0100 0000 0a00 0000 5465
7874 7572 6532 4400 0800 0000 5265 7472
6f5f 3200 7d03 0000 0100 0000 0800 0000
5265 7472 6f5f 3200 0a00 0000 5465 7874
7572 6532 4400 0b00 0000 0b00 0000 4469
6d65 6e73 696f 6e73 0007 0000 0032 3536
7831 3600 1000 0000 4861 7341 6c70 6861
4368 616e 6e65 6c00 0500 0000 5472 7565
000d 0000 0052 6573 6f75 7263 6553 697a
6500 0600 0000 3136 2e30 3000 0900 0000
4164 6472 6573 7358 0008 0000 0054 415f
5772 6170 0009 0000 0041 6464 7265 7373
5900 0800 0000 5441 5f57 7261 7000 0800
0000 4c4f 4442 6961 7300 0200 0000 3000
0500 0000 5352 4742 0006 0000 0046 616c
7365 000c 0000 004e 6576 6572 5374 7265
616d 0006 0000 0046 616c 7365 0014 0000
0043 6f6d 7072 6573 7369 6f6e 5365 7474
696e 6773 000b 0000 0054 435f 4465 6661
756c 7400 0700 0000 4669 6c74 6572 000b
0000 0054 465f 4465 6661 756c 7400 0900
0000 4c4f 4447 726f 7570 001e 0000 0054
4558 5455 5245 4752 4f55 505f 436f 6c6f
724c 6f6f 6b75 7054 6162 6c65 0016 0000
0000 0000 001b 0000 0000 0000 00e9 0000
0000 0000 0020 0000 0000 0000 000a 0000
0000 0000 001b 0000 0000 0000 0010 0000
0000 0000 0009 0000 0000 0000 00fd a815
f44f 071d 4880 a2f3 50d6 a5bc 3f14 0000
0000 0000 000b 0000 0000 0000 0004 0000
0000 0000 0000 0100 0015 0000 0000 0000
000b 0000 0000 0000 0004 0000 0000 0000
0010 0000 0011 0000 0000 0000 000b 0000
0000 0000 0004 0000 0000 0000 0001 0000
0010 0000 0000 0000 000b 0000 0000 0000
0004 0000 0000 0000 0001 0000 0004 0000
0000 0000 0003 0000 0000 0000 0000 0000
0000 0000 0001 0800 0000 0000 0000 0500
0000 0000 0000 0800 0000 0000 0000 0700
0000 0000 0000 2200 0000 0000 0000 0f00
0000 0000 0000 0c00 0000 0000 0000 1b00
0000 0000 0000 1000 0000 0000 0000 0900
0000 0000 0000 30d9 8074 a599 f041 8a05
3a43 735a 9320 1700 0000 0000 0000 1a00
0000 0000 0000 4400 0000 0000 0000 4000
0000 2e2e 2f2e 2e2f 2e2e 2f2e 2e2f 2e2e
2f2e 2e2f 5573 6572 732f 4a61 636b 2f44
6573 6b74 6f70 2f4c 5554 5f43 6f6c 6c65
6374 696f 6e2f 5265 7472 6f5f 322e 706e
6700 1800 0000 0000 0000 1a00 0000 0000
0000 1800 0000 0000 0000 1400 0000 3230
3134 2e30 382e 3139 2d30 302e 3430 2e32
3500 0e00 0000 0000 0000 0500 0000 0000
0000 0800 0000 0000 0000 1f00 0000 0000
0000 2100 0000 0000 0000 1900 0000 0000
0000 0300 0000 0000 0000 0000 0000 0000
0000 000d 0000 0000 0000 0005 0000 0000
0000 0008 0000 0000 0000 001d 0000 0000
0000 001e 0000 0000 0000 000f 0000 0000
0000 0000 0000 0000 0001 0000 0029 0100
0029 0100 0000 0000 0000 0000 0000 0000
0000 0089 504e 470d 0a1a 0a00 0000 0d49
4844 5200 0001 0000 0000 1008 0600 0000
f9d3 a149 0000 00f0 4944 4154 78da edd7
416e c230 1046 e1e7 d482 8202 02d4 45da
8a25 5ca1 4728 4bee 7f99 b00d 1505 9251
5525 7edf 32d2 2f47 8e67 3c49 cdfc abe5
ca09 3800 0db0 036a 6001 646e d972 86d4
7df2 0d1c 9fce d79c 7f3c e997 9f0f c877
5f77 7637 bf05 5681 f51f e75f 83f9 3a98
5f05 f3eb 607e f3cf eb2f 83f9 45f0 fc46
f377 cf6f fb38 5f11 9518 8d34 aed7 95fe
bc36 2bf7 422a 5755 4255 59fc 720a b82d
f3e2 cd2f 952a b399 6e65 255a bfb0 04fc
560a 9937 6f7e a9dc 09e0 7d7a d565 f14b
cf4d 0199 8f69 5598 c52f f569 009f 8efd
769d b2fe 7bd5 6d00 7b0f bb54 6a53 1cf6
0be0 ed2f 4d64 02d8 b909 52a9 2ab7 40b2
0148 b201 482a c905 9f4c 19a4 f570 78c8
0000 0000 4945 4e44 ae42 6082 c183 2a9e
