c183 2a9e fdff ffff 6003 0000 8101 0000
0000 0000 0000 0000 3907 0000 0500 0000
4e6f 6e65 0000 0000 0023 0000 00bc 0000
0001 0000 0035 0300 0002 0000 00fd 0200
0079 0300 0000 0000 007d 0300 00c2 0500
004e 9246 084a cced 4f80 16d6 3016 7178
5d01 0000 0001 0000 0023 0000 0004 0004
0000 00d8 6a22 0019 0000 002b 2b64 6570
6f74 2b55 4534 2d52 656c 6561 7365 732b
342e 3400 0000 0000 0000 0000 0728 a7a1
0000 0000 0000 0000 e405 0000 8f09 0000
0000 0000 0000 0000 0000 0000 2100 0000
2f47 616d 652f 436f 6c6f 725f 4c55 545f
436f 6c6c 6563 7469 6f6e 2f52 6574 726f
0014 0000 002f 5363 7269 7074 2f43 6f72
6555 4f62 6a65 6374 000f 0000 002f 5363
7269 7074 2f45 6e67 696e 6500 0d00 0000
426f 6f6c 5072 6f70 6572 7479 000f 0000
0062 504e 4743 6f6d 7072 6573 7365 6400
0d00 0000 4279 7465 5072 6f70 6572 7479
0006 0000 0043 6c61 7373 0015 0000 0045
5465 7874 7572 6553 6f75 7263 6546 6f72
6d61 7400 0700 0000 466f 726d 6174 0005
0000 0047 7569 6400 0300 0000 4964 000c
0000 0049 6e74 5072 6f70 6572 7479 000d
0000 004c 6967 6874 696e 6747 7569 6400
0900 0000 4c4f 4447 726f 7570 000f 0000
004d 6970 4765 6e53 6574 7469 6e67 7300
0500 0000 4e6f 6e65 0008 0000 004e 756d
4d69 7073 000a 0000 004e 756d 536c 6963
6573 0008 0000 0050 6163 6b61 6765 0006
0000 0052 6574 726f 0006 0000 0053 697a
6558 0006 0000 0053 697a 6559 0007 0000
0053 6f75 7263 6500 0f00 0000 536f 7572
6365 4669 6c65 5061 7468 0014 0000 0053
6f75 7263 6546 696c 6554 696d 6573 7461
6d70 0005 0000 0053 5247 4200 0c00 0000
5374 7250 726f 7065 7274 7900 0f00 0000
5374 7275 6374 5072 6f70 6572 7479 000a
0000 0054 6578 7475 7265 3244 000d 0000
0054 6578 7475 7265 4772 6f75 7000 1e00
0000 5445 5854 5552 4547 524f 5550 5f43
6f6c 6f72 4c6f 6f6b 7570 5461 626c 6500
1600 0000 5465 7874 7572 654d 6970 4765
6e53 6574 7469 6e67 7300 0e00 0000 5465
7874 7572 6553 6f75 7263 6500 0f00 0000
544d 4753 5f4e 6f4d 6970 6d61 7073 000a
0000 0054 5346 5f42 4752 4138 0001 0000
0000 0000 0006 0000 0000 0000 00fe ffff
ff1c 0000 0000 0000 0001 0000 0000 0000
0012 0000 0000 0000 0000 0000 0002 0000
0000 0000 00ff ffff ff00 0000 0000 0000
0013 0000 0004 0000 0003 0000 0056 0200
0039 0700 0000 0000 0000 0000 0000 0000
0000 0000 0000 0000 0000 0000 0000 0000
0000 0000 0001 0000 0000 0000 0000 0100
0010 0000 0039 0200 0089 504e 470d 0a1a
0a00 0000 0d49 4844 5200 0001 0000 0000
1008 0600 0000 f9d3 a149 0000 0200 4944
4154 78da edd8 cd4e c240 1405 e043 e91f
4588 165d b971 63f4 017c 355f db8d 0aa5
9dce b868 8d4d 5315 7312 4f6e 0ac9 0443
f2cd 8cc3 dcc3 8545 1445 0178 0670 07e0
0ac0 06c0 1a40 0120 1f8c 7430 92fe 1900
96b0 ec1f 497f 23f6 3bb1 bf16 af5f 8af7
5f1a 7fff 62cc fc91 917e 25f6 b9d8 b3e7
9792 3e21 fd52 ec23 f1fd 8f51 ce3b 00d8
02dc 90fe 42bc fe9a f485 f8fc d501 149b
0f80 27db 055c 8a2f 7021 0e00 b55f 8b03
203f 0700 b9ff 8779 7700 b9b8 00e6 eed5
5fa1 d80e 2231 1f00 f7f3 2ee0 4bd2 6fc5
9efd 042f c4e7 af2e 40f5 27b8 3e00 6ee7
dd01 14c6 0bd0 7a0b ad6e c1d5 3fe2 2de4
01b0 b35d c089 b800 d405 9488 bdba 00ad
17b0 3e00 b600 10fa 317c 843f 4c63 d72f
c47e 49fa 48bc ffc8 f8f9 c3f8 faac 8fbb
1e34 0068 01b8 fed9 f7af f9c1 dfe1 8749
ed7a 47fa 56bc be3f 7bca 07e3 9ebd ff71
d7c3 0ea1 1f4d 124e d884 ce37 a4af 495f
89d7 afc5 e7c7 7a47 7a2f f601 b6eb 27ee
7e86 f513 09d2 9e98 3eb6 fdbb d8af 499f
913e 257d 4e7a 27f6 5eec 83f8 fef7 1d80
1fe0 a9e1 4749 32b5 018d af48 ff46 fa57
d217 a4cf c49e 3dff 94f4 0de9 1de9 3de9
83b8 7efa 00a8 fb09 dc44 3b31 4e90 a934
b1eb 2bb1 df93 7e45 fa4c ec53 b1cf 49ef
48df 8aef 7fdc 9da0 ff26 35c6 23fc d282
fcbf 7f21 fd91 f407 b1df 933e 237d 4efa
54bc ff86 f42d e9bd b87e e2af 7fe3 333d
fcc4 24e3 f408 13c7 60d3 57a4 3f18 f72b
d21f 495f 93be 117b 47fa 20be ff1f c6c2
75e3 0a10 9968 0000 0000 4945 4e44 ae42
6082 0100 0000 0a00 0000 5465 7874 7572
6532 4400 0800 0000 5265 7472 6f5f 3300
7d03 0000 0100 0000 0800 0000 5265 7472
6f5f 3300 0a00 0000 5465 7874 7572 6532
4400 0b00 0000 0b00 0000 4469 6d65 6e73
696f 6e73 0007 0000 0032 3536 7831 3600
1000 0000 4861 7341 6c70 6861 4368 616e
6e65 6c00 0500 0000 5472 7565 000d 0000
0052 6573 6f75 7263 6553 697a 6500 0600
0000 3136 2e30 3000 0900 0000 4164 6472
6573 7358 0008 0000 0054 415f 5772 6170
0009 0000 0041 6464 7265 7373 5900 0800
0000 5441 5f57 7261 7000 0800 0000 4c4f
4442 6961 7300 0200 0000 3000 0500 0000
5352 4742 0006 0000 0046 616c 7365 000c
0000 004e 6576 6572 5374 7265 616d 0006
0000 0046 616c 7365 0014 0000 0043 6f6d
7072 6573 7369 6f6e 5365 7474 696e 6773
000b 0000 0054 435f 4465 6661 756c 7400
0700 0000 4669 6c74 6572 000b 0000 0054
465f 4465 6661 756c 7400 0900 0000 4c4f
4447 726f 7570 001e 0000 0054 4558 5455
5245 4752 4f55 505f 436f 6c6f 724c 6f6f
6b75 7054 6162 6c65 0016 0000 0000 0000
001b 0000 0000 0000 00e9 0000 0000 0000
0020 0000 0000 0000 000a 0000 0000 0000
001b 0000 0000 0000 0010 0000 0000 0000
0009 0000 0000 0000 00fe f67c 1cbe b54a
448c 5b1a a33f 8624 6714 0000 0000 0000
000b 0000 0000 0000 0004 0000 0000 0000
0000 0100 0015 0000 0000 0000 000b 0000
0000 0000 0004 0000 0000 0000 0010 0000
0011 0000 0000 0000 000b 0000 0000 0000
0004 0000 0000 0000 0001 0000 0010 0000
0000 0000 000b 0000 0000 0000 0004 0000
0000 0000 0001 0000 0004 0000 0000 0000
0003 0000 0000 0000 0000 0000 0000 0000
0001 0800 0000 0000 0000 0500 0000 0000
0000 0800 0000 0000 0000 0700 0000 0000
0000 2200 0000 0000 0000 0f00 0000 0000
0000 0c00 0000 0000 0000 1b00 0000 0000
0000 1000 0000 0000 0000 0900 0000 0000
0000 090f d48f 985a 2743 9e2b c126 82e7
14dd 1700 0000 0000 0000 1a00 0000 0000
0000 4400 0000 0000 0000 4000 0000 2e2e
2f2e 2e2f 2e2e 2f2e 2e2f 2e2e 2f2e 2e2f
5573 6572 732f 4a61 636b 2f44 6573 6b74
6f70 2f4c 5554 5f43 6f6c 6c65 6374 696f
6e2f 5265 7472 6f5f 332e 706e 6700 1800
0000 0000 0000 1a00 0000 0000 0000 1800
0000 0000 0000 1400 0000 3230 3134 2e30
382e 3139 2d30 302e 3430 2e30 3300 0e00
0000 0000 0000 0500 0000 0000 0000 0800
0000 0000 0000 1f00 0000 0000 0000 2100
0000 0000 0000 1900 0000 0000 0000 0300
0000 0000 0000 0000 0000 0000 0000 000d
0000 0000 0000 0005 0000 0000 0000 0008
0000 0000 0000 001d 0000 0000 0000 001e
0000 0000 0000 000f 0000 0000 0000 0000
0000 0000 0001 0000 0054 0200 0054 0200
0000 0000 0000 0000 0000 0000 0000 0089
504e 470d 0a1a 0a00 0000 0d49 4844 5200
0001 0000 0000 1008 0600 0000 f9d3 a149
0000 021b 4944 4154 78da edd9 c16e 9b40
1485 e183 4d62 706c d3b4 69ab 2c5a 4555
165d e6fd 9fab 8ec1 3090 45c7 12a2 269b
5fea d188 205d d98a fc8d 2733 f7de 0c24
9334 482f 929e 247d 95f4 45d2 bda4 4ad2
2146 2569 378a bbf8 9ac5 48d7 df40 bf81
7e0b fd1e fa0a fa07 e8bf 41ff 08fd 4fe8
9fa0 7f86 fe37 f4b9 167e ada0 a70b 786b
f645 e27e 635e 3fba ff6b 73fe e7ca 96dd
00d6 e604 a405 7067 f63b b3a7 f3df 9af7
2fb7 3780 2aed 02ce cc1b 706b 4e40 5a40
07b3 df9b fd47 0378 5cf6 0920 3727 40ea
0da0 32fb 8379 fd4a e86f ecf9 ffbc ec13
4099 7801 baff 02bb 8ff0 74ff 0a73 01fb
9f01 fc5a f609 6063 4e60 7701 b9ef a153
2f60 7a82 5cd9 1bc0 8f65 9f00 dc4f d1dd
0f11 ddf3 7717 a0bb 80fd 0de0 bb24 0d31
c6ef e77e 76ed 4ad7 6766 bf86 7e65 9eff
2a71 efde 7f77 fee7 babf 7c20 48ea e26b
90d4 c7b8 bc1f de19 285d 1fcc be4b 7cfe
a9fb 1efa c1ec 69fe c77f 0386 4974 a3c1
fa49 5ceb 423e 3f40 df42 5f7f 78e4 cfd0
7766 1fcc f94b eb27 fffb 18b8 8fa0 8dd1
4dba c9b5 2e32 bed2 f50d f4af d01f a12f
cdbe 36af 3ff5 1df4 01fa de9c ffb9 3e8d
0798 8be9 409a 99c0 fff7 03f4 0df4 47e8
4be8 0bf3 f7d3 df7f 0b7d 6dde ff16 fade
5c3f b93e 6bf2 e176 06bf d781 d2f5 1df4
67e8 4fd0 1fa1 2fa0 2fcd dfbf 857e 0f7d
037d 6bce ffd1 2d40 b802 c7f7 11d3 41a6
1dc8 e307 e803 f467 e86b e85f a12f a0ff
037d 09fd 0efa 13f4 0df4 9db9 7ef2 7f8f
1061 e6e8 7081 e341 32a5 ee03 f42d f40d
f435 f4a7 857b ba7e 6773 fed1 fc7f 03c6
0577 1206 585e 7100 0000 0049 454e 44ae
4260 82c1 832a 9e