8300 01d3 070f d040 5640 131d 250b 117f
2d40 4f20 2a6f 3141 4725 2eed 2167 ff8e
b59a 1752 7b06 3d53 072b 7d1c 4c38 0a24
782e 59de 5fa9 6422 4af4 38b1 7023 62fa
6fe4 893e 7dd7 82cb ffc7 f9fd 9ff5 6c1a
68ff e7ff df27 f844 064f a900 cf50 2a5a
9956 af7c 15a2 4e00 986e 6d6f a09b be09
0a1c 3140 a72b 2f4d 0c16 2e48 4d5a 2124
2b2f 67c6 003a 8538 4454 7e8a 9a31 4864
c3d3 e31e 2f3f 377f b255 93be 0212 1c0a
2b3d 4ec4 fe7a b7cf 1042 4b0a 3538 aec9
cadf ffff dde0 e000 a89e 0075 6b00 e1b7
0076 5f55 9c8b 5fa8 9404 2b20 58e0 b84e
766a 00c0 8000 8b5d 153e 3000 ad6f 0094
5d00 8f5c 0078 4d00 6440 005a 3900 462d
003c 2600 4c2d 0029 1873 ae96 7cba a000
4124 3677 5046 8a60 3780 5047 9360 59ac
7265 ba7e 69bf 8200 f23c 0012 0398 e6a6
4c7e 5346 6748 0083 0048 dd47 57af 5852
974e 2039 1e2c 4f26 369e 214c 7444 1951
0d7a ca67 3f6b 3278 ae5e 3566 126d c42d
6894 4955 793c 95c8 6f63 9d33 507b 1a9f
ea3a 8cc3 40b7 e94e bbe7 61c1 e940 3c46
17e8 eda6 fcff 62ed ee58 b3b3 b1e3 d658
c6c5 c1cc b668 e8c7 6ae8 c96f f4c8 64f3
ca69 c69d 4df4 c86c d59e 45c5 944d eedb
bf70 4e22 ad81 45d6 9546 5c41 1ffb c481
fa99 2eff b865 8c5b 28ff fcf9 5958 57f1
efed af68 2472 431b 4940 3ae0 8a54 4c3e
35bb 7a55 cf7b 5158 1e06 742d 136e 3a27
6054 50f7 5c2f 5a2d 2090 695f 5133 2d0e
0908 9e68 5db9 5542 1711 10a6 8984 8d54
4b34 2523 1804 04ff 7b7b ffff ff38 3838
1919 1906 0606 0000 00ff ffff 0000 0000
0000 0000 0000 0000 0000 0000 0000 0000
0000 0000 0000 0000 0000 0000 0000 0000
0000 0000 0000 0000 0000 0000 0000 0000
0000 0000 0000 0000 0000 0000 0000 0000
0000 0000 0000 0000 0000 0000 0000 0000
0000 0000 0000 0000 0000 0000 0000 0000
0000 0000 0000 0000 0000 0000 0000 0000
0000 0000 0000 0000 0000 0000 0000 0000
0000 0000 0000 0000 0000 0000 0000 0000
0000 0000 0000 0000 0000 0000 0000 0000
0000 0000 0000 0000 0000 0000 0000 0000
0000 0000 0000 0000 0000 0000 0000 0000
0000 0000 0000 0000 0000 0000 0000 0000
0000 0000 0000 0000 0000 0000 0000 0000
00b4 00b3 